<svg width="64" height="32">
  <g>
  <!-- Track links-->
    <path stroke="rgb(0,0,0)" fill="rgb(0,0,0)" d="M 0,12 L 25,12 L 18,19 L 0,19 z " />
  <!-- Track rechts-->
    <path stroke="rgb(0,0,0)" fill="rgb(0,0,0)" d="M 38,19 L 45,12 L 63,12 L 63,19 z " />  
  <!-- Abzweig unten links -->
    <path stroke="rgb(0,0,0)" fill="rgb(0,0,0)" d="M 20,23 L 12,31 L 20,31 L 28,23 z " />
  <!-- Abzweig oben rechts -->
    <path stroke="rgb(0,0,0)" fill="rgb(0,0,0)" d="M 35,8 L 43,8 L 51,0 L 43,0 z " />
  <!-- Herzstück links gerade rechts oben -->
    <path stroke="rgb(0,0,0)" fill="rgb(0,0,0)" d="M  25,12 L 18,19 L 32,19 L 43,08 L 35,08 L 31,12 z " />   
  <!-- Winkel -->
    <path stroke="rgb(0,0,0)" fill="rgb(0,0,0)" d="M 24,9 L 29,9 L 32,6 L 31,5 L 28,8 L 24,8 z " />
    <path stroke="rgb(0,0,0)" fill="rgb(0,0,0)" d="M 32,25 L 35,22 L 39,22 L 39,23 L 36,23 L 33,26  z " /> 
  <!-- Ausleuchtung gerade links gelb -->
    <path stroke="rgb(255,255,0)" fill="rgb(255,255,0)" d="M 8,14 L 23,14 L 23,17 L 8,17 z " />
  <!-- Ausleuchtung rechts oben gelb -->
    <path stroke="rgb(255,255,0)" fill="rgb(255,255,0)" d="M 42,3 L 44,5 L 38,11 L 36,9 z " />
  </g>
</svg>
