<svg width="32" height="32">
  <g>
    <!-- Track-->
    <path stroke="rgb(0,0,0)" fill="rgb(0,0,0)" d="M 0,12 L 23,12 L 21,19 L 0,19 z " />

    <!-- Striche -->
    <path stroke="rgb(0,0,0)" fill="none" d="M 26,3 L 19,28 z " />
    <path stroke="rgb(0,0,0)" fill="none" d="M 29,3 L 22,28 z " />    
  </g>
</svg>
