<svg width="32" height="32">
  <g>
    <!-- Track -->
    <path
       stroke="rgb(0,0,0)"
       fill="rgb(0,0,0)"
       d="M 0,12 L 31,12 L 31,19 L 0,19 z "
       id="path2" />

    <!-- H Tafel Umrandung -->
  <path stroke="black" fill="none" d="M 8,0 L 23,0 z "/>
  <path stroke="black" fill="none" d="M 8,1 L 8,9 z "/>
  <path stroke="black" fill="none" d="M 23,1 L 23,9 z "/>
  <path stroke="black" fill="none" d="M 8,10 L 23,10 z "/>
    <!-- H Tafel Text -->
  <path stroke="black" fill="none" d="M 10,3 L 21,3 z "/>
  <path stroke="black" fill="none" d="M 16,4 L 16,6 z "/>
  <path stroke="black" fill="none" d="M 10,7 L 21,7 z "/>
</g>
</svg>
