<svg width="32" height="32">
  <g>
  <!-- Track -->
    <path stroke="rgb(0,0,0)" fill="rgb(0,0,0)" d="M 0,12 L 31,12 L 31,19 L 0,19 z " />
  <!-- Ausleuchtung grau -->
    <path stroke="rgb(0,0,0)" fill="rgb(0,0,0)" d="M 8,14 L 23,14 L 23,17 L 8,17 z " />
  <!-- Abzweig unten rechts -->
    <path stroke="rgb(0,0,0)" fill="rgb(0,0,0)" d="M 0,19 L 7,19 L 19,31 L 15,31 L 11,31 L 0,20 z " />
  <!-- Ausleuchtung Abzweig unten rechts grau -->
    <path stroke="rgb(255,0,0)" fill="rgb(255,0,0)" d="M 6,20 L 12,26 L 10,28 L 4,22 z " />
  </g>
</svg>
