<svg width="32" height="32">
  <g>
    <!-- Track -->
    <path stroke="rgb(0,0,0)" fill="rgb(0,0,0)" d="M 0,12 L 31,12 L 31,19 L 0,19 z " />
    
    <!-- Sperre -->
    <path stroke="rgb(0,0,0)" fill="rgb(0,0,0)" d="M 13,4 L 13,26 L 19,26 L 19,04 z " />  

    <!-- Pfeil -->
    <path stroke="black" fill="black" d="M 28,4 L 4,28 z " />
    <!-- Spitze -->
    <path stroke="black" fill="black" d="M 28,4 L 24,4 L 28,8 z " />    
    
     <!-- Sperrmelder -->
    <path stroke="rgb(0,0,0)" fill="blue" d="M 24,21 L 27,21 L 30,24 L 30,27 L 27,30 L 24,30 L 21,27 L 21,24 z " />  


  </g>
</svg>
