<svg width="32" height="32">
  <g>
    <!-- Track -->
    <path stroke="rgb(0,0,0)" fill="rgb(0,0,0)" d="M 0,12 L 31,12 L 31,19 L 0,19 z " />
  
    <!-- Pfeile -->
    <path stroke="black" fill="green" d="M 6,15 L 13,8 L 13,23 L 6,16 z " />
  </g>
</svg>
