<svg width="32" height="32">
  <g>
    <!-- Track -->
    <path stroke="rgb(0,0,0)" fill="rgb(0,0,0)" d="M 0,12 L 31,12 L 31,19 L 0,19 z " />
    <!-- Ausleuchtung -->
    <path stroke="red" fill="red" d="M 8,14 L 23,14 L 23,17 L 8,17 z " />  
    <!-- Pfeile -->
    <path stroke="black" fill="none" d="M 19,8 L 26,15 L 26,16 L 19,23 z " />
  </g>
</svg>
