<svg width="32" height="32">
  <g>
  <!-- Track -->
    <path stroke="rgb(0,0,0)" fill="rgb(0,0,0)" d="M 0,12 L 19,31 L 11,31 L 0,20 z " />

  <!-- Sensor innen -->
    <path stroke="rgb(0,0,0)" fill="yellow" d="M 6,19 L 9,19 L 12,22 L 12,25 L 9,28 L 6,28 L 3,25 L 3,22 z " />
   </g>
</svg>
