<svg width="32" height="64">
  <g>
  <!-- Gelbe Lampe -->  
    <path stroke="rgb(255,255,0)" fill="black" d="M 19,36 L 21,36 L 22,37 L 22,38 L 21,39 L 19,39 L 18,38 L 18,37 z " />    
  </g>
</svg>
