<svg width="32" height="32">
  <g>
  <!-- Track -->
    <path stroke="rgb(0,0,0)" fill="rgb(0,0,0)" d="M 0,12 L 31,12 L 31,19 L 0,19 z " />

  <!-- Sensor innen -->
    <path stroke="rgb(0,0,0)" fill="grey" d="M 14,11 L 17,11 L 20,14 L 20,17 L 17,20 L 14,20 L 11,17 L 11,14 z " />
  </g>
</svg>
