<svg width="32" height="32">
  <g>
  <!-- Track -->
    <path stroke="rgb(0,0,0)" fill="rgb(0,0,0)" d="M 0,12 L 31,12 L 31,19 L 0,19 z " />
    <!-- Ausleuchtung gelb -->
    <path stroke="rgb(255,255,0)" fill="rgb(255,255,0)" d="M 8,14 L 23,14 L 23,17 L 8,17 z " />
    <!-- Pfeile -->
    <path stroke="black" fill="black" d="M 1,20 L 31,25 L 31,26 L 1,31 z " />
   <!-- Sensor innen -->
    <path stroke="black" fill="grey" d="M 6,21 L 9,21 L 11,24 L 11,27 L 9,30 L 6,30 L 3,27 L 3,24 z " />
  </g>
</svg>
